Figure 2
…
TE.distribution.ClassI.plot+
  TE.distribution.ClassII.plot+
  TE.distribution.Other.plot +
  plot_annotation(tag_levels = 'A')+plot_layout(ncol = 1) ->
  TE.distribution.plots

#ggsave(here("results","annotation","TE.distribution.plots.pdf"),
#       TE.distribution.plots,
#       width = 10, height = 15, units = "in", dpi = 300)

TEdf.long %>% arrange(TEclass, -fraction) %>% 
  filter(fraction > 0.25)

## # A tibble: 1,012 × 20
##        n   min   max TElength seqid      start    end score strand  TEID TEclass
##    <int> <dbl> <dbl>    <dbl> <chr>      <dbl>  <dbl> <dbl> <chr>  <dbl> <chr>  
##  1   218     1  6026     6025 NC_05732… 2.00e6 2.01e6   0   -        512 Academ…
##  2   218     1  6026     6025 NC_05732… 3.54e6 3.55e6  30.1 -       8224 Academ…
##  3   423     1 21114    21113 NC_05732… 1.78e6 1.80e6   0   -       3188 CMC-10 
##  4   423     1 21114    21113 NC_05732… 6.51e5 6.72e5   0.1 -        284 CMC-10 
##  5   423     1 21114    21113 NC_05732… 6.78e5 6.88e5   1   -        289 CMC-10 
##  6   423     1 21114    21113 NC_05732… 1.76e6 1.77e6   0.3 -       3185 CMC-10 
##  7   423     1 21114    21113 NC_05732… 1.75e6 1.76e6   0.8 -       3183 CMC-10 
##  8   495     1  9312     9311 NC_05732… 1.09e6 1.10e6   1.4 -        350 Copia-1
##  9   495     1  9312     9311 NC_05732… 5.59e6 5.60e6   2.5 -       1214 Copia-1
## 10   495     1  9312     9311 NC_05732… 5.52e5 5.57e5   1.6 -       2963 Copia-1
## # ℹ 1,002 more rows
## # ℹ 9 more variables: TEfamily <chr>, nr <chr>, motifStart <dbl>,
## #   motifStop <dbl>, TE_ID2 <int>, Class <chr>, Order <chr>, Notes <chr>,
## #   fraction <dbl>
…
  test %>% select(seqid,start,end,strand,attributes) %>%
   separate(attributes, into = c("key","value"), sep = "=") %>%
   filter(key %in% c("Name","locus_tag","product")) %>%
   pivot_wider(values_from = "value",names_from = "key") -> 
   annotation.mRNA.df

 annotation.mRNA.df %>% group_by(product) %>% summarise(n = n())

## # A tibble: 443 × 2
##    product                                                            n
##    <chr>                                                          <int>
##  1 1%2C2-dihydroxy-3-keto-5-methylthiopentene dioxygenase 1           1
##  2 1%2C3-beta-D-glucan synthase                                       2
##  3 1%2C4-beta-D-glucan cellobiohydrolase cel6c                        1
##  4 2-oxoglutarate dehydrogenase E1 component                          1
##  5 2-oxoglutarate dehydrogenase E1 component%2C variant 2             1
##  6 2-oxoisovalerate dehydrogenase subunit beta 2%2C mitochondrial     1
##  7 26S protease regulatory subunit 7                                  1
##  8 26S protease regulatory subunit 8                                  1
##  9 26S proteasome regulatory subunit 6A-A                             1
## 10 26S proteasome subunit rpt4%2C variant 2                           1
## # ℹ 433 more rows
…
